,taxon_id,taxon_rank,latin_name,english_name
80746,LB,class,Elasmobranchii,
80747,VL,order,Carcharhiniformes,
80748,7QF,family,Carcharhinidae,
80749,3HC4,genus,Carcharhinus,
80750,R3M6,species,Carcharhinus acronotus,Blacknose shark
80751,R3MB,species,Carcharhinus albimarginatus,Oceanic whitetip shark
80752,R3MC,species,Carcharhinus altimus,Bignose Shark
80753,R3MH,species,Carcharhinus amblyrhynchoides,Blacktip shark
80754,R3ML,species,Carcharhinus amblyrhynchos,Black-tip reef shark
80755,R3MP,species,Carcharhinus amboinensis,Ambon sharpnose puffer
80756,68ZKH,species,Carcharhinus borneensis,Borneo shark
80757,R3MV,species,Carcharhinus brachyurus,Black-tipped whaler
80758,R3N2,species,Carcharhinus brevipinna,Blacktip shark
80759,R3N4,species,Carcharhinus cautus,Blacktip reef shark
80760,R3N6,species,Carcharhinus cerdale,Pacific smalltail shark
80761,R3N7,species,Carcharhinus coatesi,Blackspot shark
80762,R3NB,species,Carcharhinus dussumieri,Blackspot shark
80763,R3ND,species,Carcharhinus falciformis,Blackspot shark
80764,68ZKG,species,Carcharhinus fitzroyensis,Creek whaler
80765,R3NH,species,Carcharhinus galapagensis,Galapagos shark
80766,R3NL,species,Carcharhinus hemiodon,Long nosed shark
80767,R3NM,species,Carcharhinus humani,Blackspot shark
80768,R3NQ,species,Carcharhinus isodon,Eventooth shark
80769,5WZKN,species,Carcharhinus leiodon,Smooth tooth blacktip shark
80770,R3NW,species,Carcharhinus leucas,Bull shark
80771,R3P2,species,Carcharhinus limbatus,Australian blacktip shark
80772,R3P4,species,Carcharhinus longimanus,Brown Milbert's sand bar shark
80773,68ZKN,species,Carcharhinus macloti,Hardnose shark
80774,R3PB,species,Carcharhinus macrops,
80775,R3PH,species,Carcharhinus melanopterus,Black fin reef shark
80776,R3PY,species,Carcharhinus obscurus,Bay-shark
80777,R3Q4,species,Carcharhinus perezii,Caribbean reef shark
80778,R3Q8,species,Carcharhinus plumbeus,Brown shark
80779,5WZKL,species,Carcharhinus porosus,Shark
80780,R3QJ,species,Carcharhinus sealei,Black-spot shark
80781,R3QK,species,Carcharhinus signatus,Night Shark
80782,R3QL,species,Carcharhinus sorrah,Black-tip shark
80783,R3QV,species,Carcharhinus tilstoni,Australian blacktip shark
80784,R3QY,species,Carcharhinus tjutjot,
80785,62SSP,genus,Galeocerdo,
80786,3F3KT,species,Galeocerdo cuvier,Leopard shark
80787,8MR77,genus,Glyphis,
80788,3GGF2,species,Glyphis fowlerae,Borneo river shark
80789,3GGF5,species,Glyphis gangeticus,Ganges shark
80790,3GGF6,species,Glyphis garricki,Northern river shark
80791,3GGF9,species,Glyphis glyphis,Speartooth shark
80792,3GGFN,species,Glyphis siamensis,Irrawaddy river shark
80793,638D7,genus,Isogomphodon,
80794,3Q956,species,Isogomphodon oxyrhynchus,Daggernose shark
80795,62W4V,genus,Lamiopsis,
80796,3S26Y,species,Lamiopsis temminckii,Broadfin shark
80797,3S26Z,species,Lamiopsis tephrodes,Broadfin shark
80798,5GYH,genus,Loxodon,
80799,3W9KT,species,Loxodon macrorhinus,Hardnose shark
80800,5XQS,genus,Nasolamia,
80801,45QJD,species,Nasolamia velox,Requiem shark
80802,63DXV,genus,Negaprion,
80803,73VK3,species,Negaprion acutidens,Broadfin shark
80804,464NF,species,Negaprion brevirostris,Lemon shark
80805,6VQX,genus,Prionace,
80806,4MF6P,species,Prionace glauca,Blue Shark
80807,78ZB,genus,Rhizoprionodon,
80808,4SDDD,species,Rhizoprionodon acutus,Australian sharpnose shark
80809,6X78K,species,Rhizoprionodon lalandii,Brazilian sharpnose shark
80810,4SDDH,species,Rhizoprionodon longurio,Pacific sharp-nosed shark
80811,4SDDL,species,Rhizoprionodon oligolinx,Australian sharpnose shark
80812,4SDDM,species,Rhizoprionodon porosus,Atlantic sharpnose shark
80813,4SDDQ,species,Rhizoprionodon taylori,Australian sharpnose shark
80814,4SDDS,species,Rhizoprionodon terraenovae,Atlantic Sharpnose Shark
80815,6455T,genus,Scoliodon,
80816,4VRW9,species,Scoliodon laticaudus,Dog shark
80817,4VRWC,species,Scoliodon macrorhynchos,
80818,7YVK,genus,Triaenodon,
80819,5855Q,species,Triaenodon obesus,Blunt-head shark
80820,624RX,family,Hemigaleidae,
80821,3LGB,genus,Chaenogaleus,
80822,T9JN,species,Chaenogaleus macrostoma,Balfour's shark
80823,4V5D,genus,Hemigaleus,
80824,3KNQX,species,Hemigaleus australiensis,Australian weasel shark
80825,3KNR6,species,Hemigaleus microstoma,Hooktooth shark
80826,4VBQ,genus,Hemipristis,
80827,3KRYJ,species,Hemipristis elongata,Elliot's grey shark
80828,63JQQ,genus,Paragaleus,
80829,4CVHB,species,Paragaleus leucolomatus,Atlantic weasel shark
80830,4CVHD,species,Paragaleus pectoralis,Atlantic weasel shark
80831,75Q7K,species,Paragaleus randalli,Slender weasel shark
80832,4CVHF,species,Paragaleus tengi,Straight-tooth weasel shark
80833,6259X,family,Leptochariidae,
80834,5CWC,genus,Leptocharias,
80835,3TL79,species,Leptocharias smithii,Barbeled hound shark
80836,F3W,family,Proscylliidae,
80837,3WWL,genus,Ctenacis,
80838,3247M,species,Ctenacis fehlmanni,Harlequin cat shark
80839,633LG,genus,Eridacnis,
80840,6GNQQ,species,Eridacnis barbouri,Cuban Ribbontail Catshark
80841,6GNR2,species,Eridacnis radcliffei,Pygmy ribbontail cat shark
80842,6GNQG,species,Eridacnis sinuans,African ribbontail cat shark
80843,6X4D,genus,Proscyllium,
80844,789L9,species,Proscyllium habereri,Graceful cat shark
80845,6VXKW,species,Proscyllium magnificum,
80846,6W9KW,species,Proscyllium venustum,
80847,6276L,family,Pseudotriakidae,
80848,634KB,genus,Gollum,
80849,3GRVK,species,Gollum attenuatus,Slender smooth hound
80850,3GRVM,species,Gollum suluensis,Sulu Gollumshark
80851,6RGH,genus,Planonasus,
80852,4JKGQ,species,Planonasus parini,Dwarf False Catshark
80853,73WM,genus,Pseudotriakis,
80854,4PDZJ,species,Pseudotriakis microdon,False Catshark
80855,G6B,family,Scyliorhinidae,
80856,Z9H,genus,Apristurus,
80857,FWY2,species,Apristurus albisoma,
80858,FWY4,species,Apristurus ampliceps,
80859,FWY5,species,Apristurus aphyodes,
80860,FWY7,species,Apristurus australis,
80861,FWY9,species,Apristurus breviventralis,Shortbelly catshark
80862,67R45,species,Apristurus brunneus,Brown cat shark
80863,FWYB,species,Apristurus bucephalus,Bighead catshark
80864,FWYC,species,Apristurus canutus,Hoary cat shark
80865,FWYD,species,Apristurus exsanguis,
80866,682RT,species,Apristurus fedorovi,
80867,FWYF,species,Apristurus garricki,
80868,FWYG,species,Apristurus gibbosus,Humpback cat shark
80869,FWYH,species,Apristurus herklotsi,Longfin cat shark
80870,FWYJ,species,Apristurus indicus,Smallbelly cat shark
80871,FWYK,species,Apristurus internatus,
80872,FWYL,species,Apristurus investigatoris,Broadnose cat shark
80873,FWYM,species,Apristurus japonicus,Japanese cat shark
80874,FWYN,species,Apristurus kampae,Longnose cat shark
80875,FWYQ,species,Apristurus laurussonii,Atlantic ghost cat shark
80876,FWYT,species,Apristurus longicephalus,Longhead cat shark
80877,682S5,species,Apristurus macrorhynchus,Flathead cat shark
80878,FWYV,species,Apristurus macrostomus,Broadmouth cat shark
80879,FWYX,species,Apristurus manis,Ghost cat shark
80880,FWYY,species,Apristurus melanoasper,Black roughscale catshark
80881,FWYZ,species,Apristurus microps,Smalleye cat shark
80882,FWZ2,species,Apristurus micropterygeus,Smalldorsal cat shark
80883,FWZ3,species,Apristurus nakayai,Milk-eye catshark
80884,FWZ4,species,Apristurus nasutus,Largenose cat shark
80885,FWZ5,species,Apristurus parvipinnis,Smallfin cat shark
80886,FWZ6,species,Apristurus pinguis,
80887,FWZ7,species,Apristurus platyrhynchus,Borneo cat shark
80888,FWZ8,species,Apristurus profundorum,Deep-water catshark
80889,6833T,species,Apristurus riveri,Broadgill Catshark
80890,FWZB,species,Apristurus saldanha,Saldanha cat shark
80891,FWZC,species,Apristurus sibogae,Pale cat shark
80892,FWZD,species,Apristurus sinensis,South China cat shark
80893,68345,species,Apristurus spongiceps,Spongehead cat shark
80894,FWZF,species,Apristurus stenseni,Panama ghost cat shark
80895,FWZJ,species,Apristurus yangi,Yang’s longnose catshark
80896,34R8,genus,Asymbolus,
80897,J6MD,species,Asymbolus analis,Australian spotted catshark
80898,5VVFT,species,Asymbolus funebris,Blotched catshark
80899,J6MF,species,Asymbolus galacticus,Starry catshark
80900,J6MG,species,Asymbolus occiduus,Spotted cat shark
80901,J6MH,species,Asymbolus pallidus,Pale spotted catshark
80902,J6MJ,species,Asymbolus parvus,Dwarf catshark
80903,J6MK,species,Asymbolus rubiginosus,Orange spotted catshrak
80904,J6ML,species,Asymbolus submaculatus,Saddled catshark
80905,J6MM,species,Asymbolus vincenti,Gulf cat shark
80906,34VW,genus,Atelomycterus,
80907,J8V2,species,Atelomycterus baliensis,Bali catshark
80908,J8V3,species,Atelomycterus erdmanni,Spotted-belly catshark
80909,J8V4,species,Atelomycterus fasciatus,Banded catshark
80910,J8V5,species,Atelomycterus macleayi,Australian marbled cat shark
80911,J8V6,species,Atelomycterus marmoratus,Coral catshark
80912,J8V8,species,Atelomycterus marnkalha,Eastern banded catshark
80913,35S8,genus,Aulohalaelurus,
80914,JSCP,species,Aulohalaelurus kanakorum,
80915,JSCQ,species,Aulohalaelurus labiosus,
80916,62JNJ,genus,Bythaelurus,
80917,P2LG,species,Bythaelurus alcockii,Arabian cat shark
80918,P2LJ,species,Bythaelurus bachi,Bach’s catshark
80919,P2LK,species,Bythaelurus canescens,Cat shark
80920,P2LL,species,Bythaelurus clevai,Broadhead cat shark
80921,P2LM,species,Bythaelurus dawsoni,Dawson's catshark
80922,P2LN,species,Bythaelurus giddingsi,Galápagos catshark
80923,P2LP,species,Bythaelurus hispidus,Bristly cat shark
80924,P2LQ,species,Bythaelurus immaculatus,Spotless cat shark
80925,P2LR,species,Bythaelurus incanus,Dusky catshark
80926,P2LS,species,Bythaelurus lutarius,Brown catshark
80927,P2LT,species,Bythaelurus naylori,Dusky snout catshark
80928,695GF,species,Bythaelurus tenuicephalus,Narrowhead catshark
80929,P2LV,species,Bythaelurus vivaldii,Mud catshark
80930,62JW4,genus,Cephaloscyllium,
80931,5XJXG,species,Cephaloscyllium albipinnum,Whitefin swellshark
80932,69K9G,species,Cephaloscyllium cooki,Cook’s swellshark
80933,5XK9F,species,Cephaloscyllium fasciatum,Leopard-spotted swellshark
80934,5XJXL,species,Cephaloscyllium hiscosellum,Australian reticulate swellshark
80935,69K9L,species,Cephaloscyllium isabellum,Carpet shark
80936,5XJXK,species,Cephaloscyllium laticeps,Australian swell shark
80937,69JXJ,species,Cephaloscyllium pictum,Painted swellshark
80938,5XJXP,species,Cephaloscyllium sarawakensis,Balloon shark
80939,5XK9P,species,Cephaloscyllium signourum,Flagtail swellshark
80940,69JXP,species,Cephaloscyllium silasi,Indian swell shark
80941,69K9P,species,Cephaloscyllium speccum,Speckled swellshark
80942,5XJXN,species,Cephaloscyllium stevensi,Steven's swellshark
80943,69JXN,species,Cephaloscyllium sufflans,Balloon shark
80944,5XJXM,species,Cephaloscyllium umbratile,Blotchy swell shark
80945,69JXM,species,Cephaloscyllium variegatum,Saddled swellshark
80946,69K9M,species,Cephaloscyllium ventriosum,Swell shark
80947,5XJWS,species,Cephaloscyllium zebrum,Narrowbar swellshark
80948,3KJP,genus,Cephalurus,
80949,SF3H,species,Cephalurus cephalus,
80950,4JZQ,genus,Figaro,
80951,6HZ8N,species,Figaro boardmani,Australian sawtail cat shark
80952,6HYWL,species,Figaro striatus,Northern sawtail shark
80953,4LVQ,genus,Galeus,
80954,3F4XK,species,Galeus antillensis,
80955,3F4XM,species,Galeus arae,Crested shark
80956,3F4XN,species,Galeus atlanticus,Atlantic sawtail cat shark
80957,3F4XS,species,Galeus cadenati,Longfin sawtail cat shark
80958,3F4XX,species,Galeus corriganae,
80959,3F4XZ,species,Galeus eastmani,Gecko cat shark
80960,3F4Y2,species,Galeus gracilis,Slender sawtail cat shark
80961,3F4Y6,species,Galeus longirostris,Longnose sawtail cat shark
80962,3F4Y9,species,Galeus melastomus,Black-mouthed dogfish
80963,6JVJ7,species,Galeus mincaronei,Southern sawtail catshark
80964,3F4YC,species,Galeus murinus,Mouse cat shark
80965,6K7J7,species,Galeus nipponensis,Broadfin sawtail cat shark
80966,3F4YG,species,Galeus piperatus,Peppered cat shark
80967,3F4YH,species,Galeus polli,African sawtail cat shark
80968,3F4YJ,species,Galeus priapus,
80969,3F4YK,species,Galeus sauteri,Blacktip sawtail cat shark
80970,3F4YL,species,Galeus schultzi,Dwarf sawtail cat shark
80971,3F4YM,species,Galeus springeri,Springer's sawtail cat shark
80972,4SMM,genus,Halaelurus,
80973,6L9MV,species,Halaelurus boesemani,Blackspotted catshark
80974,6KXMW,species,Halaelurus buergeri,Black-spotted cat shark
80975,6L9MR,species,Halaelurus lineatus,Banded catshark
80976,6KXN4,species,Halaelurus maculosus,Indonesian Speckled Catshark
80977,6L9N4,species,Halaelurus natalensis,Tiger cat shark
80978,6KXN5,species,Halaelurus quagga,Quagga cat shark
80979,6L9MT,species,Halaelurus sellus,Rusty Catshark
80980,4TDF,genus,Haploblepharus,
80981,3JL86,species,Haploblepharus edwardsii,Dog fish
80982,3JL87,species,Haploblepharus fuscus,Brown shy shark
80983,3JL88,species,Haploblepharus kistnasamyi,
80984,3JL89,species,Haploblepharus pictus,Dark shy shark
80985,4XZ5,genus,Holohalaelurus,
80986,3M8XC,species,Holohalaelurus favus,
80987,3M8XD,species,Holohalaelurus grennian,
80988,6M9YG,species,Holohalaelurus melanostigma,African spotted catshark
80989,3M8XH,species,Holohalaelurus punctatus,
80990,3M8XL,species,Holohalaelurus regani,
80991,63LJX,genus,Parmaturus,
80992,4DNG2,species,Parmaturus albimarginatus,White-tip Catshark
80993,4DNG3,species,Parmaturus albipenis,White-clasper catshark
80994,4DNG4,species,Parmaturus bigus,Beige catshark
80995,4DNG5,species,Parmaturus campechiensis,Campeche cat shark
80996,4DNG6,species,Parmaturus lanatus,Velvet catshark
80997,4DNG7,species,Parmaturus macmillani,McMillan's cat shark
80998,6TRMD,species,Parmaturus melanobranchus,Blackgill cat shark
80999,4DNGB,species,Parmaturus pilosus,Salamander shark
81000,4DNGD,species,Parmaturus xaniurus,Filetail cat shark
81001,6KSH,genus,Pentanchus,
81002,76NJ6,species,Pentanchus profundicolus,Onefin cat shark
81003,63PX3,genus,Poroderma,
81004,4LY3N,species,Poroderma africanum,Pyjama shark
81005,4LY3Q,species,Poroderma pantherinum,Barbeled catshark
81006,7DWG,genus,Schroederichthys,
81007,4VFYV,species,Schroederichthys bivius,Narrowmouth cat shark
81008,4VFYW,species,Schroederichthys chilensis,Red-spotted cat shark
81009,4VFYX,species,Schroederichthys maculatus,Narrowtail cat shark
81010,4VFYY,species,Schroederichthys saurisqualus,Lizard catshark
81011,4VFYZ,species,Schroederichthys tenuis,Narrowmouthed catshark
81012,63SXP,genus,Scyliorhinus,
81013,79ZWZ,species,Scyliorhinus besnardi,Polka-dot cat shark
81014,4W56X,species,Scyliorhinus boa,Boa Catshark
81015,4W56Y,species,Scyliorhinus cabofriensis,
81016,4W56Z,species,Scyliorhinus canicula,Dogfish
81017,4W574,species,Scyliorhinus capensis,Yellow-spotted cat shark
81018,4W575,species,Scyliorhinus cervigoni,Nurse hound
81019,4W576,species,Scyliorhinus comoroensis,Comoro cat shark
81020,4W579,species,Scyliorhinus garmani,Brown-spotted cat shark
81021,6XZWW,species,Scyliorhinus haeckelii,Boa catshark
81022,4W57C,species,Scyliorhinus hesperius,Boa catshark
81023,6XZX8,species,Scyliorhinus meadi,Blotched cat shark
81024,4W57K,species,Scyliorhinus retifer,Chain cat shark
81025,4W57R,species,Scyliorhinus stellaris,Bull huss
81026,4W57T,species,Scyliorhinus tokubee,Izu cat shark
81027,79ZWW,species,Scyliorhinus torazame,Cloudy cat shark
81028,4W57V,species,Scyliorhinus torrei,Cat shark
81029,4W57X,species,Scyliorhinus ugoi,Dark freckled catshark
81030,GJ2,family,Sphyrnidae,
81031,4H6T,genus,Eusphyra,
81032,6HGWQ,species,Eusphyra blochii,
81033,646C5,genus,Sphyrna,
81034,4Z2Q7,species,Sphyrna corona,Hammerhead
81035,4Z2Q8,species,Sphyrna couardi,Whitefin hammerhead
81036,6YZYQ,species,Sphyrna gilberti,
81037,6YZZ2,species,Sphyrna lewini,
81038,4Z2QG,species,Sphyrna media,Scoophead
81039,4Z2QK,species,Sphyrna mokarran,Great Hammerhead
81040,4Z2QP,species,Sphyrna tiburo,Bonnet hammerhead
81041,4Z2QR,species,Sphyrna tudes,Bonnet
81042,4Z2QW,species,Sphyrna zygaena,Common hammerhead
81043,HDS,family,Triakidae,
81044,4LGJ,genus,Furgaleus,
81045,6K4PG,species,Furgaleus macki,Mack's whiskery shark
81046,62T54,genus,Galeorhinus,
81047,3F43C,species,Galeorhinus galeus,Eastern school shark
81048,4PT5,genus,Gogolia,
81049,3GRFX,species,Gogolia filewoodi,Sailback hound shark
81050,4VG9,genus,Hemitriakis,
81051,6LR2X,species,Hemitriakis abdita,Darksnout houndshark
81052,3KTLV,species,Hemitriakis complicofasciata,
81053,3KTLW,species,Hemitriakis falcata,Sicklefin hound shark
81054,3KTLX,species,Hemitriakis indroyonoi,Indonesian Houndshark
81055,3KTLY,species,Hemitriakis japanica,Japanese gray shark
81056,3KTM2,species,Hemitriakis leucoperiptera,Whitefin tope shark
81057,52RF,genus,Hypogaleus,
81058,6N3C8,species,Hypogaleus hyugaensis,Blacktip houndshark
81059,5383,genus,Iago,
81060,3P6TC,species,Iago garricki,Longnose hound shark
81061,3P6TD,species,Iago omanensis,Bigeye hound shark
81062,63CQ9,genus,Mustelus,
81063,44QZN,species,Mustelus albipinnis,Whitemargin smoothhound
81064,44QZR,species,Mustelus antarcticus,Australian smooth hound
81065,44QZS,species,Mustelus asterias,Smooth-hound
81066,44QZT,species,Mustelus californicus,Gray smooth hound
81067,44QZX,species,Mustelus canis,Atlantic smooth dogfish
81068,44QZY,species,Mustelus dorsalis,Sharp-tooth smooth hound
81069,44R24,species,Mustelus fasciatus,Striped smooth hound
81070,44R26,species,Mustelus griseus,Japanese gray smooth hound
81071,44R28,species,Mustelus henlei,Brown smooth hound
81072,44R29,species,Mustelus higmani,Smalleye smooth hound
81073,44R2D,species,Mustelus lenticulatus,Gummy shark
81074,6S2QM,species,Mustelus lunulatus,Sicklefin smooth hound
81075,44R2J,species,Mustelus manazo,Gummy dogfish
81076,44R2K,species,Mustelus mangalorensis,
81077,44R2N,species,Mustelus mento,Smooth hound
81078,44R2P,species,Mustelus minicanis,
81079,44R2R,species,Mustelus mosis,Arabian smooth hound
81080,44R2T,species,Mustelus mustelus,Dusky smooth-hound
81081,44R2X,species,Mustelus norrisi,Florida Smooth-hound
81082,44R2Z,species,Mustelus palumbes,Dusky smooth-hound
81083,44R34,species,Mustelus punctulatus,Black spotted smooth hound
81084,44R35,species,Mustelus ravidus,Australian grey smooth-hound
81085,44R36,species,Mustelus schmitti,Narrownose smooth hound
81086,44R37,species,Mustelus sinusmexicanus,Gulf smoothhound
81087,44R39,species,Mustelus stevensi,Starspotted smooth-hound
81088,44R3D,species,Mustelus walkeri,Eastern spotted gummy shark
81089,73R2M,species,Mustelus whitneyi,Humpback smooth hound
81090,44R3F,species,Mustelus widodoi,White-fin smooth-hound
81091,644YT,genus,Scylliogaleus,
81092,4W59G,species,Scylliogaleus quecketti,Flapnose houndshark
81093,7YW4,genus,Triakis,
81094,5858X,species,Triakis acutipinna,Sharpfin houndshark
81095,58596,species,Triakis maculata,Smooth hound
81096,58597,species,Triakis megalopterus,Blackspotted smooth-hound
81097,7CP4N,species,Triakis scyllium,
81098,5859B,species,Triakis semifasciata,Leopard shark
81099,3C5,order,Heterodontiformes,
81100,624TR,family,Heterodontidae,
81101,636SQ,genus,Heterodontus,
81102,6M53J,species,Heterodontus francisci,Horn shark
81103,6LSRK,species,Heterodontus galeatus,Crested Port Jackson shark
81104,6LT3K,species,Heterodontus japonicus,Bull-head shark
81105,6M4RK,species,Heterodontus mexicanus,Mexican horn shark
81106,6M53K,species,Heterodontus omanensis,Oman bullhead shark
81107,6M4RL,species,Heterodontus portusjacksoni,Bullhead
81108,6M53L,species,Heterodontus quoyi,Galapagos bullhead shark
81109,6LSRF,species,Heterodontus ramalheira,Heterodontus zebra
81110,6LT3F,species,Heterodontus zebra,Barred bull-head shark
81111,3CC,order,Hexanchiformes,
81112,85C,family,Chlamydoselachidae,
81113,3NH8,genus,Chlamydoselachus,
81114,5XWT6,species,Chlamydoselachus africana,African frilled shark
81115,5Y8T6,species,Chlamydoselachus anguineus,Frill shark
81116,B27,family,Hexanchidae,
81117,4VQF,genus,Heptranchias,
81118,3KX95,species,Heptranchias perlo,7-gilled shark
81119,4WZ4,genus,Hexanchus,
81120,3LGK8,species,Hexanchus griseus,6-gilled shark
81121,3LGK9,species,Hexanchus nakamurai,Bigeye Sixgill Shark
81122,65JN,genus,Notorynchus,
81123,47YCK,species,Notorynchus cepedianus,Bluntnose sevengill shark
81124,3F5,order,Lamniformes,
81125,685,family,Alopiidae,
81126,STR,genus,Alopias,
81127,C5K6,species,Alopias pelagicus,Bigeye thresher
81128,65WK9,species,Alopias superciliosus,Big eye thresher shark
81129,C5KF,species,Alopias vulpinus,Atlantic thresher
81130,7Y4,family,Cetorhinidae,
81131,3LCZ,genus,Cetorhinus,
81132,T72Q,species,Cetorhinus maximus,Basking shark
81133,BRD,family,Lamnidae,
81134,3HC9,genus,Carcharodon,
81135,5WZLF,species,Carcharodon carcharias,Great white shark
81136,62WDT,genus,Isurus,
81137,3QDF9,species,Isurus oxyrinchus,Atlantic mako
81138,3QDFC,species,Isurus paucus,Long finned mako shark
81139,62W58,genus,Lamna,
81140,6NVXX,species,Lamna ditropis,Mackerel shark
81141,3S2F7,species,Lamna nasus,Beaumaris shark
81142,CGN,family,Megachasmidae,
81143,5MLY,genus,Megachasma,
81144,3YR3B,species,Megachasma pelagios,Megamouth shark
81145,624NP,family,Mitsukurinidae,
81146,5TW5,genus,Mitsukurina,
81147,43RPG,species,Mitsukurina owstoni,Elfin shark
81148,DHR,family,Odontaspididae,
81149,3HC6,genus,Carcharias,
81150,5WZK9,species,Carcharias taurus,Blue nurse shark
81151,5WZJV,species,Carcharias tricuspidatus,Blue nurse sand-tiger
81152,63FSQ,genus,Odontaspis,
81153,74HN7,species,Odontaspis ferox,Bigeye sandtiger
81154,48NNK,species,Odontaspis noronhai,Bigeye sand shark
81155,F82,family,Pseudocarchariidae,
81156,6ZFH,genus,Pseudocarcharias,
81157,4NQQW,species,Pseudocarcharias kamoharai,Crocodile shark
81158,3LQ,order,Myliobatiformes,
81159,8ZK,family,Dasyatidae,
81160,38S7,genus,Bathytoshia,
81161,KYKZ,species,Bathytoshia brevicaudata,Giant black ray
81162,KYL2,species,Bathytoshia centroura,Rough-tailed
81163,KYL3,species,Bathytoshia lata,Broad stingray
81164,3D5F,genus,Brevitrygon,
81165,692ZN,species,Brevitrygon heterura,Dwarf whipray
81166,5WQZM,species,Brevitrygon imbricata,Bengal whipray
81167,5X2ZM,species,Brevitrygon javaensis,Javan whipray
81168,68QZM,species,Brevitrygon walga,Dwarf whip ray
81169,3ZY5,genus,Dasyatis,
81170,6CC4Q,species,Dasyatis brevis,Diamond stingray
81171,6CBSS,species,Dasyatis chrysonota,Blue stingray
81172,347BF,species,Dasyatis gigantea,Giant stumptail stingray
81173,347BQ,species,Dasyatis hastata,
81174,347BT,species,Dasyatis hypostigma,
81175,347CP,species,Dasyatis marmorata,Marbled stingray
81176,347CQ,species,Dasyatis matsubarai,Pitted stingray
81177,6CBT6,species,Dasyatis multispinosa,Multispine giant stingray
81178,347D2,species,Dasyatis pastinaca,Blue stingray
81179,347DH,species,Dasyatis thetidis,Black skate
81180,347DJ,species,Dasyatis tortonesei,Tortonese's stingray
81181,347DQ,species,Dasyatis ushiei,Cow stingray
81182,6352R,genus,Fluvitrygon,
81183,6JBX8,species,Fluvitrygon kittipongi,
81184,6JC8W,species,Fluvitrygon oxyrhynchus,Longnose marbled whip ray
81185,6JC98,species,Fluvitrygon signifer,Freshwater stingray
81186,4KQ6,genus,Fontitrygon,
81187,6JDM2,species,Fontitrygon colarensis,Colares stingray
81188,6JDLP,species,Fontitrygon garouaensis,Niger stingray
81189,6JDLG,species,Fontitrygon geijskesi,Sharpsnout stingray
81190,6JDLF,species,Fontitrygon margarita,Daisy stingray
81191,6JDLD,species,Fontitrygon margaritella,Pearl stingray
81192,6JDLK,species,Fontitrygon ukpam,Pincushion ray
81193,4VGM,genus,Hemitrygon,
81194,6LR55,species,Hemitrygon akajei,Brown stingray
81195,3KTRB,species,Hemitrygon bennettii,Bennett's cowtail
81196,3KTRC,species,Hemitrygon fluviorum,Brown stingray
81197,3KTRD,species,Hemitrygon izuensis,Izu stingray
81198,6M2ST,species,Hemitrygon laevigata,Yantai stingray
81199,3KTRF,species,Hemitrygon laosensis,Mekong freshwater stingray
81200,3KTRG,species,Hemitrygon longicauda,Merauke stingray
81201,3KTRH,species,Hemitrygon navarrae,Blackish stingray
81202,3KTRJ,species,Hemitrygon parvonigra,Dwarf black stingray
81203,3KTRK,species,Hemitrygon sinensis,Chinese stingray
81204,4XB4,genus,Himantura,
81205,3LY2W,species,Himantura alcockii,
81206,3LY2Y,species,Himantura australis,
81207,3LY38,species,Himantura fava,
81208,3LY39,species,Himantura fluviatilis,
81209,3LY3R,species,Himantura krempfi,
81210,3LY3S,species,Himantura leoparda,
81211,3LY3V,species,Himantura marginata,
81212,3LY3W,species,Himantura microphthalma,
81213,3LY3Z,species,Himantura pacifica,
81214,3LY42,species,Himantura pareh,
81215,3LY47,species,Himantura randalli,
81216,3LY48,species,Himantura schmardae,
81217,3LY4F,species,Himantura tutul,
81218,3LY4N,species,Himantura uarnak,
81219,3LY4Q,species,Himantura undulata,
81220,52BG,genus,Hypanus,
81221,3NMJB,species,Hypanus americanus,Kit
81222,3NMJC,species,Hypanus dipterurus,Diamond stingray
81223,3NMJD,species,Hypanus guttatus,Longnose Stingray
81224,6N2N7,species,Hypanus longus,Longtail stingray
81225,3NMJF,species,Hypanus marianae,Brazilian large-eyed stingray
81226,3NMJG,species,Hypanus rudis,Smalltooth stingray
81227,3NMJH,species,Hypanus sabinus,Atlantic Stingray
81228,3NMJJ,species,Hypanus say,Blunmose Stingray
81229,5JTJ,genus,Maculabatis,
81230,3XDNG,species,Maculabatis ambigua,"Baraka""s whipray"
81231,3XDNH,species,Maculabatis arabica,Arabic whipray
81232,3XDNJ,species,Maculabatis astra,Black-spotted whipray
81233,3XDNK,species,Maculabatis bineeshi,Short-tail whipray
81234,3XDNL,species,Maculabatis gerrardi,Banded whiptail ray
81235,3XDNM,species,Maculabatis pastinacoides,Round whip ray
81236,3XDNN,species,Maculabatis toshi,Black-edged whipray
81237,62XX6,genus,Makararaja,
81238,3XJXL,species,Makararaja chindwinensis,
81239,5N4T,genus,Megatrygon,
81240,6R9LQ,species,Megatrygon microps,Annandale's stingray
81241,62YV,genus,Neotrygon,
81242,46W2X,species,Neotrygon annotata,
81243,46W2Y,species,Neotrygon australiae,
81244,46W2Z,species,Neotrygon caeruleopunctata,
81245,46W32,species,Neotrygon kuhlii,
81246,46W33,species,Neotrygon leylandi,
81247,46W34,species,Neotrygon ningalooensis,
81248,46W35,species,Neotrygon orientale,
81249,46W36,species,Neotrygon picta,
81250,6JGR,genus,Pastinachus,
81251,4DZC4,species,Pastinachus ater,
81252,4DZC6,species,Pastinachus gracilicaudus,Narrowtail stingray
81253,4DZC8,species,Pastinachus sephen,Banana-tail ray
81254,4DZC9,species,Pastinachus solocirostris,Roughnose stingray
81255,764H6,species,Pastinachus stellurostris,Starrynose stingray
81256,6JJR,genus,Pateobatis,
81257,765YD,species,Pateobatis bleekeri,Bleeker's whipray
81258,6TTYF,species,Pateobatis fai,Pink whip ray
81259,75TYF,species,Pateobatis hortlei,Hortle's whipray
81260,765YF,species,Pateobatis jenkinsii,Brown stingray
81261,6TTYG,species,Pateobatis uarnacoides,Bleeker's whipray
81262,642TS,genus,Pteroplatytrygon,
81263,4Q2NB,species,Pteroplatytrygon violacea,Blue stingray
81264,7RXT,genus,Taeniura,
81265,54JCX,species,Taeniura grabata,Round fantail stingray
81266,54JCY,species,Taeniura lessoni,Oceania fantail ray
81267,54JCZ,species,Taeniura lymma,Blue spotted lagoon ray
81268,645FS,genus,Taeniurops,
81269,54JDB,species,Taeniurops meyeni,Black spotted ray
81270,645KZ,genus,Telatrygon,
81271,555GH,species,Telatrygon acutirostra,Sharpnose stingray
81272,555GJ,species,Telatrygon biasa,Common ray
81273,555GK,species,Telatrygon zugei,Pale-edged stingray
81274,858Z,genus,Urogymnus,
81275,7DV6M,species,Urogymnus acanthobothrium,Mumburarr whipray
81276,7DV79,species,Urogymnus asperrimus,African ray
81277,7DV6W,species,Urogymnus dalyensis,Estuary stingray
81278,7DV78,species,Urogymnus granulatus,Coachwhip ray
81279,7DV6V,species,Urogymnus lobistoma,Stingray
81280,7DV7D,species,Urogymnus polylepis,Estuary stingray
81281,625FG,family,Gymnuridae,
81282,4RYP,genus,Gymnura,
81283,3HVPS,species,Gymnura afuerae,
81284,3HVPT,species,Gymnura altavela,Butterfly ray
81285,6L7M4,species,Gymnura australis,Australian butterfly ray
81286,3HVPV,species,Gymnura bimaculata,Twin-spot butterfly ray
81287,3HVPW,species,Gymnura crebripunctata,Butterfly ray
81288,3HVPX,species,Gymnura crooki,
81289,3HVPY,species,Gymnura hirundo,Madeira butterfly ray
81290,3HVPZ,species,Gymnura japonica,Japanese butterfly ray
81291,3HVQ2,species,Gymnura lessae,
81292,3HVQ3,species,Gymnura marmorata,California butterfly ray
81293,3HVQ5,species,Gymnura micrura,Butterfly ray
81294,3HVQ7,species,Gymnura natalensis,Backwater butterfly ray
81295,3HVQ8,species,Gymnura poecilura,Butterfly ray
81296,3HVQ9,species,Gymnura sereti,
81297,6KVLT,species,Gymnura tentaculata,Tentacled butterfly ray
81298,3HVQC,species,Gymnura zonura,Bleeker's butterfly ray
81299,B2B,family,Hexatrygonidae,
81300,4X2L,genus,Hexatrygon,
81301,3LHH5,species,Hexatrygon bickelli,Sixgill stingray
81302,D2V,family,Myliobatidae,
81303,PXH,genus,Aetobatus,
81304,65DZ6,species,Aetobatus flagellum,Eagle ray
81305,65DZC,species,Aetobatus narinari,Bishop ray
81306,65DZD,species,Aetobatus narutobiei,Longheaded eagle ray
81307,65DZW,species,Aetobatus ocellatus,Longheaded eagle ray
81308,PXJ,genus,Aetomylaeus,
81309,65DZZ,species,Aetomylaeus asperrimus,Barred eagle ray
81310,65DPB,species,Aetomylaeus bovinus,Bull ray
81311,65DPF,species,Aetomylaeus caeruleofasciatus,Blue-banded eagle ray
81312,65DPJ,species,Aetomylaeus maculatus,Bat ray
81313,65DPG,species,Aetomylaeus milvus,Brown eagle-ray
81314,65DPH,species,Aetomylaeus nichofii,Banded eagle ray
81315,65DP4,species,Aetomylaeus vespertilio,Ornate eagle ray
81316,63BV4,genus,Mobula,
81317,43STZ,species,Mobula alfredi,Alfred manta
81318,73N5T,species,Mobula birostris,Atlantic manta
81319,73N64,species,Mobula eregoodootenkee,Devil ray
81320,6RN5R,species,Mobula hypostoma,Atlantic devil ray
81321,6RN63,species,Mobula japanica,Devilray
81322,73N5R,species,Mobula kuhlii,Lesser devilray
81323,6RMTQ,species,Mobula mobular,Devil fish
81324,6RN5Q,species,Mobula munkiana,Munk's devil ray
81325,73N62,species,Mobula rochebrunei,Lesser Guinean devil ray
81326,6RMTP,species,Mobula tarapacana,Chilean devil ray
81327,73MTP,species,Mobula thurstoni,Bentfin devil ray
81328,5WB9,genus,Myliobatis,
81329,453C6,species,Myliobatis aquila,Common bull ray
81330,453C8,species,Myliobatis australis,Australian bull ray
81331,453CB,species,Myliobatis californica,Bat eagle ray
81332,6RRP3,species,Myliobatis chilensis,Chilean eagle ray
81333,453CK,species,Myliobatis freminvillei,Blue-nosed ray
81334,453CL,species,Myliobatis goodei,Rockfish
81335,453CM,species,Myliobatis hamlyni,Hamlyn's bull-ray
81336,453CN,species,Myliobatis longirostris,Longnose eagle ray
81337,453CZ,species,Myliobatis peruvianus,Peruvian eagle ray
81338,453D3,species,Myliobatis ridens,Shortnose eagle ray
81339,453D6,species,Myliobatis tenuicaudatus,Eagle ray
81340,453D8,species,Myliobatis tobijei,Cowhead eagle ray
81341,78SP,genus,Rhinoptera,
81342,4S9R2,species,Rhinoptera adspersa,Rough cow-nose ray
81343,4S9R4,species,Rhinoptera bonasus,Cow-nosed ray
81344,4S9R5,species,Rhinoptera brasiliensis,Brazilian cow-nose ray
81345,6WTPR,species,Rhinoptera javanica,Cownose ray
81346,4S9RB,species,Rhinoptera jayakari,Oman cownose ray
81347,4S9RD,species,Rhinoptera marginata,Lusitanian cow-nose ray
81348,6WTQ3,species,Rhinoptera neglecta,Australian cow-nose ray
81349,4S9RG,species,Rhinoptera steindachneri,Cow-nosed ray
81350,625RS,family,Plesiobatidae,
81351,6SK7,genus,Plesiobatis,
81352,6W2C7,species,Plesiobatis daviesi,Davie's stingray
81353,627MW,family,Potamotrygonidae,
81354,637CK,genus,Heliotrygon,
81355,3KCXQ,species,Heliotrygon gomesi,Gomes’s round ray
81356,3KCXR,species,Heliotrygon rosai,Rosa’s round ray
81357,6HCB,genus,Paratrygon,
81358,4DH5R,species,Paratrygon aiereba,Discus ray
81359,63NVQ,genus,Plesiotrygon,
81360,4K9ZW,species,Plesiotrygon iwamae,Long-tailed river stingray
81361,4K9ZX,species,Plesiotrygon nana,
81362,6V72,genus,Potamotrygon,
81363,4M4QB,species,Potamotrygon adamastor,
81364,4M4QD,species,Potamotrygon albimaculata,
81365,6W7PB,species,Potamotrygon amandae,
81366,4M4QF,species,Potamotrygon amazona,
81367,4M4QG,species,Potamotrygon boesemani,
81368,4M4QH,species,Potamotrygon brachyura,Short-tailed river stingray
81369,4M4QN,species,Potamotrygon constellata,Thorny river stingray
81370,4M4QQ,species,Potamotrygon falkneri,Largespot river stingray
81371,4M4QR,species,Potamotrygon garmani,
81372,4M4QT,species,Potamotrygon henlei,Bigtooth river stingray
81373,4M4QY,species,Potamotrygon humerosa,
81374,4M4QV,species,Potamotrygon hystrix,Freshwater stingray
81375,4M4QZ,species,Potamotrygon jabuti,
81376,4M4R4,species,Potamotrygon leopoldi,White-blotched river stingray
81377,4M4R5,species,Potamotrygon limai,
81378,4M4R6,species,Potamotrygon magdalenae,Magdalena river stingray
81379,4M4R7,species,Potamotrygon marinae,
81380,4M4R9,species,Potamotrygon motoro,Black river stingray
81381,787PB,species,Potamotrygon ocellata,Red-blotched river stingray
81382,4M4RB,species,Potamotrygon orbignyi,Anglespot river stingray
81383,4M4RC,species,Potamotrygon pantanensis,
81384,4M4RF,species,Potamotrygon rex,Great freshwater stingray
81385,4M4RG,species,Potamotrygon schroederi,Rosette river stingray
81386,4M4RK,species,Potamotrygon schuhmacheri,
81387,4M4RM,species,Potamotrygon scobina,Raspy river stingray
81388,4M4RN,species,Potamotrygon signata,Parnaiba river stingray
81389,4M4RQ,species,Potamotrygon tatianae,
81390,4M4RR,species,Potamotrygon tigrina,
81391,4M4RS,species,Potamotrygon wallacei,
81392,4M4RT,species,Potamotrygon yepezi,Maracaibo river stingray
81393,HQ9,family,Urolophidae,
81394,646CN,genus,Spinilophus,
81395,4Z5GT,species,Spinilophus armatus,Black-spotted stingree
81396,839C,genus,Trygonoptera,
81397,59F2M,species,Trygonoptera galba,Shovelnose stingaree
81398,59F2P,species,Trygonoptera imitata,Eastern shovelnose stingaree
81399,59F2S,species,Trygonoptera mucosa,Bebil
81400,7CYBN,species,Trygonoptera ovalis,
81401,59F2X,species,Trygonoptera personata,Masked stingaree
81402,59F2Z,species,Trygonoptera testacea,Common stingaree
81403,859N,genus,Urolophus,
81404,7DW7R,species,Urolophus aurantiacus,Sepia stingray
81405,7DW83,species,Urolophus bucculentus,Great stingaree
81406,7DVW2,species,Urolophus circularis,Banded sting-ray
81407,7DVVP,species,Urolophus cruciatus,Banded stingaree
81408,7DW7P,species,Urolophus deforgesi,
81409,7DW7N,species,Urolophus expansus,Broadbacked stingaree
81410,7DVVM,species,Urolophus flavomosaicus,Patchwork stingaree
81411,7DW7M,species,Urolophus gigas,Sinclair's stingaree
81412,7DW7Z,species,Urolophus halleri,Haller's round ray
81413,7DW7Y,species,Urolophus javanicus,Java stingaree
81414,7DVVX,species,Urolophus kaianus,Kai stingaree
81415,7DVW9,species,Urolophus kapalensis,Kapala stingaree
81416,7DW7X,species,Urolophus lobatus,Lobed stingaree
81417,7DW7W,species,Urolophus mitosis,Blotched stingaree
81418,7DW7V,species,Urolophus neocaledoniensis,
81419,7DW87,species,Urolophus orarius,Coastal stingaree
81420,7DVW6,species,Urolophus papilio,
81421,7DW86,species,Urolophus paucimaculatus,Dixon's stingaree
81422,7DVWD,species,Urolophus piperatus,Coral sea stingaree
81423,7DVWC,species,Urolophus sufflavus,Yellowback stingaree
81424,7DW8M,species,Urolophus viridis,Greenback stingaree
81425,7DVWL,species,Urolophus westraliensis,Brown stingaree
81426,HQN,family,Urotrygonidae,
81427,856W,genus,Urobatis,
81428,7DRVZ,species,Urobatis concentricus,Bull's-eye stingray
81429,7DRVY,species,Urobatis jamaicensis,Maid
81430,7DS7Y,species,Urobatis maculatus,Cortez round stingray
81431,7DRWH,species,Urobatis marmoratus,Chilean round stingray
81432,7DS8H,species,Urobatis pardalis,
81433,7DRWG,species,Urobatis tumbesensis,Tumbes round stingray
81434,85CS,genus,Urotrygon,
81435,7DZF7,species,Urotrygon aspidura,Panamic stingray
81436,7DZF4,species,Urotrygon caudispinosus,Stingray
81437,7DZF3,species,Urotrygon chilensis,Blotched stingray
81438,7DZF2,species,Urotrygon cimar,
81439,7DZCW,species,Urotrygon microphthalmum,Smalleyed round stingray
81440,7DZD8,species,Urotrygon munda,Munda round ray
81441,7DZD7,species,Urotrygon nana,Dwarf round ray
81442,7DZDF,species,Urotrygon peruanus,Peruvian stingray
81443,7DZDD,species,Urotrygon reticulata,Reticulate round ray
81444,7DZDC,species,Urotrygon rogersi,Lined round stingray
81445,7DZDB,species,Urotrygon serrula,Stingray
81446,7DZDN,species,Urotrygon simulatrix,Fake round ray
81447,7DZDM,species,Urotrygon venezuelae,Venezuela round stingray
81448,3Q8,order,Orectolobiformes,
81449,7CC,family,Brachaeluridae,
81450,3C5Y,genus,Brachaelurus,
81451,5WQCG,species,Brachaelurus colcloughi,Blue-gray carpet shark
81452,5X2CG,species,Brachaelurus waddi,Blind shark
81453,623HG,family,Ginglymostomatidae,
81454,4NL5,genus,Ginglymostoma,
81455,6KFCS,species,Ginglymostoma cirratum,Carpet shark
81456,6KFDW,species,Ginglymostoma unami,Nurse shark
81457,5Y5H,genus,Nebrius,
81458,45ZFC,species,Nebrius ferrugineus,Giant Sleepy -shark
81459,724D,genus,Pseudoginglymostoma,
81460,4NX99,species,Pseudoginglymostoma brevicaudatum,Nurse shark
81461,6253H,family,Hemiscylliidae,
81462,3N4W,genus,Chiloscyllium,
81463,69SC3,species,Chiloscyllium arabicum,Arabian bamboo shark
81464,5XSBS,species,Chiloscyllium burmensis,Burmese bamboo shark
81465,5XSC4,species,Chiloscyllium caeruleopunctatum,Bluespotted bambooshark
81466,5XSC6,species,Chiloscyllium griseum,Banded dogfish
81467,5XSBZ,species,Chiloscyllium hasseltii,Brownbanded bambooshark
81468,5XSDH,species,Chiloscyllium indicum,Catshark
81469,5Y4DD,species,Chiloscyllium plagiosum,Brownbanded bambooshark
81470,69SDF,species,Chiloscyllium punctatum,Brown spotted cat shark
81471,636ZG,genus,Hemiscyllium,
81472,3KSHN,species,Hemiscyllium freycineti,Freycinet's shark
81473,3KSHP,species,Hemiscyllium galei,Cenderwasih Epaulette shark
81474,3KSHT,species,Hemiscyllium hallstromi,Papuan epaulette shark
81475,6LQQP,species,Hemiscyllium halmahera,Bamboo shark
81476,3KSHV,species,Hemiscyllium henryi,Triton Epaulette shark
81477,3KSHW,species,Hemiscyllium michaeli,Leopard Epaulette shark
81478,3KSHX,species,Hemiscyllium ocellatum,Blind shark
81479,3KSJ3,species,Hemiscyllium strahani,Hooded carpet shark
81480,3KSJ4,species,Hemiscyllium trispeculare,Marbled catshark
81481,DPT,family,Orectolobidae,
81482,4FCJ,genus,Eucrossorhinus,
81483,3BYKZ,species,Eucrossorhinus dasypogon,Bearded wobbegong
81484,69HM,genus,Orectolobus,
81485,74SMS,species,Orectolobus floridus,Floral banded wobbegong
81486,74SN4,species,Orectolobus halei,Banded wobbegong
81487,754MS,species,Orectolobus hutchinsi,Western wobbegong
81488,6SSMR,species,Orectolobus japonicus,Fringe shark
81489,6SSN3,species,Orectolobus leptolineatus,Indonesian wobbegong
81490,6T4N3,species,Orectolobus maculatus,Carpet shark
81491,754MR,species,Orectolobus ornatus,Banded carpet shark
81492,754N3,species,Orectolobus parvimaculatus,Dwarf spotted wobbegong
81493,6T4MQ,species,Orectolobus reticulatus,Network wobbegong
81494,6SSN2,species,Orectolobus wardi,North Australian wobbegong
81495,7QH9,genus,Sutorectus,
81496,53HTY,species,Sutorectus tentaculatus,Cobbler carpet shark
81497,626LJ,family,Parascylliidae,
81498,3Q6B,genus,Cirrhoscyllium,
81499,5YX22,species,Cirrhoscyllium expolitum,Barbelthroat carpet shark
81500,VGYB,species,Cirrhoscyllium formosanum,Taiwan saddled carpet shark
81501,VGYC,species,Cirrhoscyllium japonicum,Saddle carpetshark
81502,6GQR,genus,Parascyllium,
81503,4DBPJ,species,Parascyllium collare,Collar carpetshark
81504,4DBPK,species,Parascyllium elongatum,Elongate carpet shark
81505,4DBPL,species,Parascyllium ferrugineum,Rusty carpet shark
81506,4DBPP,species,Parascyllium sparsimaculatum,Ginger carpetshark
81507,4DBPQ,species,Parascyllium variolatum,Aried cat shark
81508,FNM,family,Rhincodontidae,
81509,78M9,genus,Rhincodon,
81510,4S7H3,species,Rhincodon typus,Basking shark
81511,GMC,family,Stegostomatidae,
81512,7M85,genus,Stegostoma,
81513,4ZP9X,species,Stegostoma fasciatum,
81514,62377,order,Pristiophoriformes,
81515,627DB,family,Pristiophoridae,
81516,6SZX,genus,Pliotrema,
81517,77RL5,species,Pliotrema warreni,Longnose sawshark
81518,6VXD,genus,Pristiophorus,
81519,4MJWB,species,Pristiophorus cirratus,Common sawshark
81520,4MJWC,species,Pristiophorus delicatus,Tropical sawshark
81521,4MJWD,species,Pristiophorus japonicus,Halberd shark
81522,6VWGH,species,Pristiophorus lanae,Lana’s Sawshark
81523,4MJWF,species,Pristiophorus nancyae,African dwarf sawshark
81524,4MJWG,species,Pristiophorus nudipinnis,Doggies
81525,4MJWK,species,Pristiophorus schroederi,Bahamas saw shark
81526,3XR,order,Rajiformes,
81527,6CJ,family,Anacanthobatidae,
81528,62BXB,genus,Anacanthobatis,
81529,66JGZ,species,Anacanthobatis americana,
81530,66JGB,species,Anacanthobatis donghaiensis,
81531,66JGF,species,Anacanthobatis folirostris,
81532,66JGK,species,Anacanthobatis longirostris,
81533,66JGL,species,Anacanthobatis marmorata,
81534,66J8C,species,Anacanthobatis nanhaiensis,
81535,5485,genus,Indobatis,
81536,3PMXQ,species,Indobatis ori,Black leg skate
81537,63SRR,genus,Sinobatis,
81538,4XKLQ,species,Sinobatis borneensis,Borneo leg skate
81539,4XKLR,species,Sinobatis brevicauda,Shorttail legskate
81540,4XKLS,species,Sinobatis bulbicauda,Western Australian Legskate
81541,4XKLT,species,Sinobatis caerulea,Blue Legskate
81542,6Z2WJ,species,Sinobatis filicauda,
81543,4XKLV,species,Sinobatis kotlyari,
81544,4XKLW,species,Sinobatis melanosoma,Blackbodied leg skate
81545,4XKLX,species,Sinobatis stenosoma,Narrow leg skate
81546,6PY,family,Arhynchobatidae,
81547,32SZ,genus,Arhynchobatis,
81548,5W2VK,species,Arhynchobatis asperrimus,Longtail skate
81549,355G,genus,Atlantoraja,
81550,JH53,species,Atlantoraja castelnaui,
81551,JH54,species,Atlantoraja cyclophora,
81552,JH55,species,Atlantoraja platana,
81553,38QS,genus,Bathyraja,
81554,5WDZS,species,Bathyraja abyssicola,Deep-sea skate
81555,68DZS,species,Bathyraja aguja,Aguja skate
81556,5WDZR,species,Bathyraja albomaculata,Spotted Ray
81557,68DZR,species,Bathyraja aleutica,Aleutian skate
81558,5WDZQ,species,Bathyraja andriashevi,Little-eyed skate
81559,5WDZP,species,Bathyraja bergi,Bottom skate
81560,68DZP,species,Bathyraja brachyurops,Blonde ray
81561,5WDZW,species,Bathyraja caeluronigricans,Purple-black skate
81562,68DZW,species,Bathyraja cousseauae,Joined-fins skate
81563,68DZV,species,Bathyraja diplotaenia,Dusky-pink skate
81564,68DZT,species,Bathyraja eatonii,Eaton's skate
81565,68DYZ,species,Bathyraja fedorovi,Cinnamon skate
81566,5WDYY,species,Bathyraja griseocauda,Austral ray
81567,68DYY,species,Bathyraja hesperafricana,West African skate
81568,5WDZ9,species,Bathyraja interrupta,Bering skate
81569,68DYX,species,Bathyraja irrasa,Kerguelen sandpaper skate
81570,68DZ9,species,Bathyraja ishiharai,
81571,5WDZ8,species,Bathyraja isotrachys,Challenger skate
81572,5WDZC,species,Bathyraja leucomelanos,Domino skate
81573,68DZC,species,Bathyraja lindbergi,Commander skate
81574,5WDZB,species,Bathyraja longicauda,Slimtail skate
81575,68DZB,species,Bathyraja maccaini,McCain's skate
81576,5WDZG,species,Bathyraja macloviana,Patagonian skate
81577,KXV2,species,Bathyraja maculata,White-blotched skate
81578,KXV3,species,Bathyraja magellanica,Magellan common ray
81579,KXV4,species,Bathyraja mariposa,Butterfly skate
81580,KXV5,species,Bathyraja matsubarai,Dusky-purple skate
81581,KXV6,species,Bathyraja meridionalis,Dark-belly skate
81582,KXV8,species,Bathyraja minispinosa,Smallthorn skate
81583,KXV9,species,Bathyraja multispinis,Multispine skate
81584,68DZG,species,Bathyraja murrayi,Murray's skate
81585,KXVC,species,Bathyraja notoroensis,Notoro skate
81586,KXVD,species,Bathyraja pacifica,
81587,5WDZF,species,Bathyraja pallida,Pale ray
81588,KXVF,species,Bathyraja panthera,Leopard skate
81589,KXVH,species,Bathyraja papilionifera,Butterfly skate
81590,KXVK,species,Bathyraja parmifera,Alaska skate
81591,KXVL,species,Bathyraja peruana,Peruvian skate
81592,KXVM,species,Bathyraja pseudoisotrachys,
81593,KXVN,species,Bathyraja richardsoni,Deepsea skate
81594,KXVQ,species,Bathyraja scaphiops,Cuphead skate
81595,KXVR,species,Bathyraja schroederi,Ray
81596,KXVS,species,Bathyraja shuntovi,Longnose deep-sea skate
81597,KXVT,species,Bathyraja simoterus,Hokkaido skate
81598,68DZF,species,Bathyraja smirnovi,Golden skate
81599,KXVV,species,Bathyraja smithii,African softnose skate
81600,KXVW,species,Bathyraja spinicauda,Spinetail ray
81601,KXVY,species,Bathyraja spinosissima,Pacific white skate
81602,KXVZ,species,Bathyraja taranetzi,Aleutian dotted skate
81603,KXW3,species,Bathyraja trachouros,Eremo skate
81604,KXW4,species,Bathyraja trachura,Black skate
81605,KXW5,species,Bathyraja tunae,
81606,KXW6,species,Bathyraja tzinovskii,Creamback skate
81607,KXW7,species,Bathyraja violacea,Okhotsk skate
81608,62H3H,genus,Brochiraja,
81609,NC7B,species,Brochiraja aenigma,
81610,NC7C,species,Brochiraja albilabiata,
81611,NC7D,species,Brochiraja asperula,Prickly deepsea skate
81612,68R52,species,Brochiraja heuresa,
81613,NC7F,species,Brochiraja leviveneta,
81614,NC7G,species,Brochiraja microspinifera,
81615,NC7H,species,Brochiraja spinifera,Prickly deep-sea skate
81616,NC7J,species,Brochiraja vittacauda,
81617,54JY,genus,Insentiraja,
81618,3PSJN,species,Insentiraja laxipella,Eastern looseskin skate
81619,3PSJP,species,Insentiraja subtilispinosa,Velvet skate
81620,5534,genus,Irolita,
81621,6N9Y9,species,Irolita waitii,Round ray
81622,3Q2BB,species,Irolita westraliensis,Southern round skate
81623,63GJB,genus,Notoraja,
81624,6SBHN,species,Notoraja alisae,
81625,6SBHM,species,Notoraja azurea,Blue skate
81626,74BHM,species,Notoraja fijiensis,
81627,6SBHL,species,Notoraja hirticauda,Ghost skate
81628,74BHL,species,Notoraja inusitata,
81629,74BHK,species,Notoraja lira,
81630,6SBHJ,species,Notoraja longiventralis,
81631,74BHJ,species,Notoraja ochroderma,Pale skate
81632,6SBHH,species,Notoraja sapphira,Sapphire Skate
81633,74BHH,species,Notoraja sereti,Papuan velvet skate
81634,74BHG,species,Notoraja sticta,Blotched skate
81635,74BHF,species,Notoraja tobitukai,Leadhued skate
81636,63LD6,genus,Pavoraja,
81637,75VPB,species,Pavoraja alleni,Allen's skate
81638,767PB,species,Pavoraja arenaria,Sandy skate
81639,767PC,species,Pavoraja mosaica,Mosaic skate
81640,6TVPD,species,Pavoraja nitida,Graceful skate
81641,767PD,species,Pavoraja pseudonitida,False peacock skate
81642,75VPF,species,Pavoraja umbrosa,Dusky skate
81643,63PBL,genus,Psammobatis,
81644,4NBHQ,species,Psammobatis bergi,Blotched sand skate
81645,78C4T,species,Psammobatis extenta,Little skate
81646,4NBHX,species,Psammobatis lentiginosa,Freckled sand skate
81647,4NBJ2,species,Psammobatis normani,Ray
81648,4NBJ3,species,Psammobatis parvacauda,Smalltail sand skate
81649,4NBJ4,species,Psammobatis rudis,Ray
81650,4NBJ6,species,Psammobatis rutrum,Ray
81651,4NBJ7,species,Psammobatis scobina,Raspthorn sand skate
81652,73BF,genus,Pseudoraja,
81653,4P9DF,species,Pseudoraja fischeri,Fanfin skate
81654,78ST,genus,Rhinoraja,
81655,4S9S2,species,Rhinoraja kujiensis,Dapple-bellied softnose skate
81656,4S9S4,species,Rhinoraja longicauda,White-bellied softnose skate
81657,6X623,species,Rhinoraja odai,Oda's skate
81658,643QQ,genus,Rioraja,
81659,78WQ4,species,Rioraja agassizii,Ray
81660,7QY9,genus,Sympterygia,
81661,53SCS,species,Sympterygia acuta,Bignose fanskate
81662,53SCV,species,Sympterygia bonapartii,Ray
81663,53SCW,species,Sympterygia brevicaudata,Pacific skate
81664,53SCY,species,Sympterygia lima,Filetail fanskate
81665,FJ6,family,Rajidae,
81666,TJB,genus,Amblyraja,
81667,65ZND,species,Amblyraja badia,Broad skate
81668,5TZNJ,species,Amblyraja doellojuradoi,Ray
81669,65ZNJ,species,Amblyraja frerichsi,Ray
81670,5TZNG,species,Amblyraja georgiana,Amblyraja georgiana
81671,65ZNG,species,Amblyraja hyperborea,Arctic skate
81672,5TZNH,species,Amblyraja jenseni,Jensen's skate
81673,65ZNH,species,Amblyraja radiata,Maiden ray
81674,5TZNM,species,Amblyraja reversa,Reversed skate
81675,65ZNM,species,Amblyraja robertsi,Bigmouth skate
81676,5TZNN,species,Amblyraja taaf,Thorny skate
81677,39PK,genus,Beringraja,
81678,LKZV,species,Beringraja binoculata,Big skate
81679,LKZW,species,Beringraja pulchra,Mottled skate
81680,3D4X,genus,Breviraja,
81681,692YZ,species,Breviraja claramaculata,Brightspot skate
81682,5WQZB,species,Breviraja colesi,Lightnose Skate
81683,692ZF,species,Breviraja marklei,Nova Scotia skate
81684,5X2ZD,species,Breviraja mouldi,Blacknose skate
81685,692ZD,species,Breviraja nigriventralis,Blackbelly skate
81686,68QZH,species,Breviraja spinosa,Spinose skate
81687,3WB3,genus,Cruriraja,
81688,ZS3M,species,Cruriraja andamanica,Andaman leg skate
81689,ZS3N,species,Cruriraja atlantis,Atlantic Legskate
81690,ZS3P,species,Cruriraja cadenati,Broadfoot leg skate
81691,ZS3Q,species,Cruriraja durbanensis,Smooth nose leg skate
81692,ZS3R,species,Cruriraja hulleyi,Roughnose legskate
81693,ZS3S,species,Cruriraja parcomaculata,Roughnose leg skate
81694,ZS3T,species,Cruriraja poeyi,Cuban Legskate
81695,6BK8Z,species,Cruriraja rugosa,Rough leg skate
81696,6325Y,genus,Dactylobatus,
81697,6BYNN,species,Dactylobatus armatus,Skilletskate
81698,6BYNP,species,Dactylobatus clarkii,Hookskate
81699,439V,genus,Dentiraja,
81700,6CKFC,species,Dentiraja australis,Common skate
81701,6CKFD,species,Dentiraja cerva,Hind skate
81702,6CKFF,species,Dentiraja confusa,Longnose skate
81703,6CKFG,species,Dentiraja endeavouri,Endeavour skate
81704,6CKF8,species,Dentiraja falloarga,False Argus skate
81705,6CKF9,species,Dentiraja flindersi,Pygmy thornback skate
81706,6CKF2,species,Dentiraja healdi,Heald’s skate
81707,6CKF3,species,Dentiraja lemprieri,Australian thornback skate
81708,6CKF4,species,Dentiraja polyommata,Argus skate
81709,632SL,genus,Dipturus,
81710,36R2W,species,Dipturus acrobelus,Deepwater skate
81711,36R2X,species,Dipturus amphispinus,
81712,36R2Y,species,Dipturus apricus,Pale tropical skate
81713,36R2Z,species,Dipturus argentinensis,Argentine skate
81714,36R33,species,Dipturus batis,Blue grey skate
81715,36R35,species,Dipturus bullisi,Bullis skate
81716,36R36,species,Dipturus campbelli,Blackspot skate
81717,36R37,species,Dipturus canutus,Grey skate
81718,36R3B,species,Dipturus crosnieri,Madagascar skate
81719,36R3C,species,Dipturus diehli,Thorny tail skate
81720,36R3D,species,Dipturus doutrei,Javalin skate
81721,6CYWK,species,Dipturus ecuadoriensis,Ecuador skate
81722,36R3H,species,Dipturus flavirostris,
81723,36R3K,species,Dipturus garricki,San Blas skate
81724,36R3L,species,Dipturus gigas,Giant skate
81725,36R3M,species,Dipturus grahami,Graham’s skate
81726,36R3N,species,Dipturus gudgeri,Bight skate
81727,36R3Q,species,Dipturus innominatus,New Zealand smooth skate
81728,36R3T,species,Dipturus johannisdavisi,Travancore skate
81729,36R3V,species,Dipturus kwangtungensis,Kwangtung skate
81730,36R3W,species,Dipturus laevis,Barn-door skate
81731,36R3X,species,Dipturus lanceorostratus,Rattail skate
81732,36R42,species,Dipturus leptocauda,Thintail skate
81733,36R45,species,Dipturus macrocauda,Bigtail skate
81734,36R47,species,Dipturus melanospilus,Blacktip skate
81735,36R48,species,Dipturus mennii,South Brazilian skate
81736,6CYWL,species,Dipturus nidarosiensis,Norwegian skate
81737,36R4C,species,Dipturus oculus,Ocellate skate
81738,36R4D,species,Dipturus olseni,Spreadfin skate
81739,6CZ8L,species,Dipturus oregoni,Hooktail skate
81740,36R4F,species,Dipturus oxyrinchus,Long nosed skate
81741,36R4L,species,Dipturus pullopunctatus,Blackspot skate
81742,36R4M,species,Dipturus queenslandicus,Queensland deepwater skate
81743,36R4N,species,Dipturus springeri,Roughbelly skate
81744,36R4P,species,Dipturus stenorhynchus,Prow-nose skate
81745,36R4Q,species,Dipturus teevani,Caribbean skate
81746,36R4R,species,Dipturus tengu,Acutenose skate
81747,36R4S,species,Dipturus trachyderma,Ray
81748,6CYWM,species,Dipturus wengi,Weng’s skate
81749,36R4V,species,Dipturus whitleyi,Great skate
81750,36R4W,species,Dipturus wuhanlingi,
81751,4JRM,genus,Fenestraja,
81752,3DY97,species,Fenestraja atripinna,Blackfin pygmy skate
81753,3DY98,species,Fenestraja cubensis,Cuban Pygmy Skate
81754,3DY99,species,Fenestraja ishiyamai,Plain Pygmy Skate
81755,6HR58,species,Fenestraja maceachrani,Madagascar pygmy skate
81756,3DY9B,species,Fenestraja mamillidens,Prickly skate
81757,3DY9C,species,Fenestraja plutonia,Pluto Skate
81758,3DY9D,species,Fenestraja sibogae,Siboga pygmy skate
81759,6HQST,species,Fenestraja sinusmexicanus,Gulf Of Mexico Pygmy Skate
81760,62TY8,genus,Gurgesiella,
81761,3HMQ7,species,Gurgesiella atlantica,Atlantic pygmy skate
81762,3HMQ8,species,Gurgesiella dorsalifera,Onefin skate
81763,3HMQ9,species,Gurgesiella furvescens,Dusky finless skate
81764,4YGV,genus,Hongeo,
81765,3MJ4X,species,Hongeo koreana,
81766,5DXM,genus,Leucoraja,
81767,7269M,species,Leucoraja caribbaea,
81768,6PTXJ,species,Leucoraja circularis,
81769,6Q5XJ,species,Leucoraja compagnoi,
81770,6Q69J,species,Leucoraja erinacea,
81771,725XJ,species,Leucoraja fullonica,
81772,7269J,species,Leucoraja garmani,
81773,6PTXK,species,Leucoraja lentiginosa,
81774,6Q5XK,species,Leucoraja leucosticta,
81775,6Q69K,species,Leucoraja melitensis,
81776,725XK,species,Leucoraja naevus,
81777,7269K,species,Leucoraja ocellata,
81778,6PTXH,species,Leucoraja pristispina,
81779,6Q5XH,species,Leucoraja virginica,
81780,6Q69H,species,Leucoraja wallacei,
81781,725XH,species,Leucoraja yucatanensis,
81782,5KDG,genus,Malacoraja,
81783,73542,species,Malacoraja kreffti,Krefft's ray
81784,3XKTC,species,Malacoraja obscura,
81785,3XKTD,species,Malacoraja senta,Prickly skate
81786,6R4RP,species,Malacoraja spinacidermis,Prickled ray
81787,62H4,genus,Neoraja,
81788,46RL6,species,Neoraja africana,
81789,46RL7,species,Neoraja caerulea,
81790,46RL8,species,Neoraja carolinensis,
81791,46RL9,species,Neoraja iberica,
81792,46RLB,species,Neoraja stehmanni,
81793,63FWH,genus,Okamejei,
81794,74JB4,species,Okamejei acutispina,Sharpspine skate
81795,4926V,species,Okamejei arafurensis,Arafura skate
81796,4926X,species,Okamejei boesemani,Black sand skate
81797,4926Y,species,Okamejei cairae,Borneo Sand Skate
81798,49272,species,Okamejei heemstrai,East African skate
81799,49273,species,Okamejei hollandi,Holland skate
81800,49275,species,Okamejei kenojei,Ocellate spot skate
81801,49278,species,Okamejei leptoura,Thintail skate
81802,49279,species,Okamejei meerdervoortii,Bigeye skate
81803,4927B,species,Okamejei mengae,
81804,4927C,species,Okamejei ornata,Ornate skate
81805,4927D,species,Okamejei philipi,
81806,4927G,species,Okamejei schmidti,Browneye skate
81807,69DK,genus,Orbiraja,
81808,74TBC,species,Orbiraja jensenae,Sulu Sea skate
81809,755BC,species,Orbiraja powelli,Indian ring skate
81810,76V6,genus,Raja,
81811,78RMJ,species,Raja ackleyi,Ocellate skate
81812,78RMM,species,Raja africana,African ray
81813,78RMQ,species,Raja asterias,Atlantic starry skate
81814,6X3MP,species,Raja bahamensis,Bahama skate
81815,6WRN6,species,Raja brachyura,Blonde
81816,6X3N8,species,Raja cervigoni,Finspot ray
81817,793N8,species,Raja chinensis,
81818,793MV,species,Raja clavata,Madeiran ray
81819,78RMY,species,Raja cortezensis,Cortez skate
81820,793KZ,species,Raja eglanteria,Clear-nosed brier skate
81821,6WRLB,species,Raja equatorialis,Ecuatorial ray
81822,6X3LK,species,Raja herwigi,Cape Verde skate
81823,793LN,species,Raja inornata,California ray
81824,78RM7,species,Raja maderensis,Madeira ray
81825,78RLX,species,Raja microocellata,Owl ray
81826,6X3LW,species,Raja miraletus,Brown ray
81827,78RLW,species,Raja montagui,Homelyn ray
81828,6X3BS,species,Raja pita,Pita skate
81829,793BS,species,Raja polystigma,Speckled ray
81830,78RBX,species,Raja radula,Rough ray
81831,6WRBW,species,Raja rhina,Longnose skate
81832,78RC8,species,Raja rondeleti,Rondelet's ray
81833,6X3BZ,species,Raja rouxi,
81834,6WRCF,species,Raja stellulata,Pacific starry skate
81835,6WRCH,species,Raja straeleni,Biscuit skate
81836,6X3CK,species,Raja texana,Roundel skate
81837,793CL,species,Raja undulata,Painted ray
81838,6WRCN,species,Raja velezi,Rasptail ray
81839,76V8,genus,Rajella,
81840,4RB3C,species,Rajella annandalei,Annandale's skate
81841,4RB3D,species,Rajella barnardi,Bigthorn skate
81842,78RCP,species,Rajella bathyphila,Deep-water ray
81843,4RB3F,species,Rajella bigelowi,Bigelow's ray
81844,4RB3G,species,Rajella caudaspinosa,Munchkin skate
81845,4RB3H,species,Rajella challengeri,Challenger skate
81846,4RB3J,species,Rajella dissimilis,Ghost skate
81847,4RB3K,species,Rajella eisenhardti,
81848,4RB3L,species,Rajella fuliginea,Sooty skate
81849,4RB3M,species,Rajella fyllae,Round ray
81850,4RB3N,species,Rajella kukujevi,Mid-Atlantic skate
81851,4RB3P,species,Rajella leoparda,Leopard skate
81852,4RB3R,species,Rajella lintea,Linen skate
81853,4RB3S,species,Rajella nigerrima,Blackish skate
81854,4RB3T,species,Rajella paucispinosa,Sparsely-thorned skate
81855,793CP,species,Rajella purpuriventralis,Purplebelly skate
81856,4RB3V,species,Rajella ravidula,Skate
81857,4RB3W,species,Rajella sadowskii,Brazilian skate
81858,63RX6,genus,Rostroraja,
81859,4TFRS,species,Rostroraja alba,Bordered ray
81860,63X8V,genus,Zearaja,
81861,7GCM8,species,Zearaja chilensis,Barn-door skate
81862,5CYBC,species,Zearaja maugeana,
81863,5CYBD,species,Zearaja nasuta,
81864,3YC,order,Rhinopristiformes,
81865,623HR,family,Glaucostegidae,
81866,62SHH,genus,Glaucostegus,
81867,3G6MS,species,Glaucostegus cemiculus,Blackchin guitarfish
81868,3G6MT,species,Glaucostegus granulatus,Granulated guitarfish
81869,6KH39,species,Glaucostegus halavi,Halavi guitarfish
81870,3G6MW,species,Glaucostegus obtusus,Blunt shovel nose ray
81871,3G6MX,species,Glaucostegus petiti,Madagascar guitarfish
81872,3G6MY,species,Glaucostegus thouin,Clubnose guitarfish
81873,3G6MZ,species,Glaucostegus typus,Austalian guitarfish
81874,627D9,family,Pristidae,
81875,X54,genus,Anoxypristis,
81876,66XW7,species,Anoxypristis cuspidata,
81877,6VXK,genus,Pristis,
81878,788GJ,species,Pristis clavata,Dwarf sawfish
81879,4MK2K,species,Pristis microdon,Common sawfish
81880,4MK2S,species,Pristis pectinata,Comb shark
81881,4MK2V,species,Pristis perotteti,Large-tooth sawfish
81882,4MK2X,species,Pristis pristis,Common sawfish
81883,4MK37,species,Pristis zijsron,Dindagubba
81884,FNR,family,Rhinidae,
81885,8MTXY,genus,Rhina,
81886,4S738,species,Rhina ancylostoma,Bow-mouthed angel fish
81887,79J6,genus,Rhynchobatus,
81888,4SRJ3,species,Rhynchobatus australiae,Bottlenose wedgefish
81889,4SRJ5,species,Rhynchobatus cooki,Clown wedgefish
81890,78VQY,species,Rhynchobatus djiddensis,Giant guitarfish
81891,4SRJD,species,Rhynchobatus laevis,Smooth nose wedgefish
81892,4SRJG,species,Rhynchobatus luebberti,African wedgefish
81893,4SRJH,species,Rhynchobatus palpebratus,Eyebrow wedgefish
81894,4SRJJ,species,Rhynchobatus springeri,Broadnose wedgefish
81895,79N3,genus,Rhynchorhina,
81896,4SSC2,species,Rhynchorhina mauritaniensis,False shark ray
81897,626VZ,family,Rhinobatidae,
81898,NKH,genus,Acroteriobatus,
81899,9QSL,species,Acroteriobatus annulatus,Guitarfish
81900,9QSM,species,Acroteriobatus blochii,Bluntnose fiddlefish
81901,9QSN,species,Acroteriobatus leucospilus,Grayspot guitarfish
81902,9QSP,species,Acroteriobatus ocellatus,Speckled guitarfish
81903,9QSQ,species,Acroteriobatus omanensis,Omn guitarfish
81904,9QSR,species,Acroteriobatus salalah,Salalah guitarfish
81905,9QSS,species,Acroteriobatus variegatus,Stripenose guitarfish
81906,9QST,species,Acroteriobatus zanzibarensis,Zanzibar guitarfish
81907,62CQK,genus,Aptychotrema,
81908,FZBB,species,Aptychotrema rostrata,Australian shovelnose ray
81909,FZBC,species,Aptychotrema timorensis,Spotted shovelnose ray
81910,FZBD,species,Aptychotrema vincentiana,Guitarfish
81911,6S36,genus,Platyrhinoidis,
81912,4JXW8,species,Platyrhinoidis triseriata,Guitarfish
81913,642X2,genus,Pseudobatos,
81914,4NPQD,species,Pseudobatos glaucostigmus,Speckled guitarfish
81915,78BZ9,species,Pseudobatos horkelii,Brazilian guitarfish
81916,4NPQF,species,Pseudobatos lentiginosus,Atlantic guitarfish
81917,4NPQG,species,Pseudobatos leucorhynchus,Whitenose guitarfish
81918,4NPQH,species,Pseudobatos percellens,Chola guitarfish
81919,4NPQJ,species,Pseudobatos planiceps,Flathead guitarfish
81920,4NPQK,species,Pseudobatos prahli,Gorgona guitarfish
81921,4NPQL,species,Pseudobatos productus,Guitarfish
81922,78N6,genus,Rhinobatos,
81923,4S7W5,species,Rhinobatos albomaculatus,Chola guitarfish
81924,4S7W6,species,Rhinobatos annandalei,Annandale's guitarfish
81925,6X5P8,species,Rhinobatos austini,Austin’s guitarfish
81926,4S7WG,species,Rhinobatos borneensis,Borneo guitarfish
81927,4S7WN,species,Rhinobatos formosensis,Taiwan guitarfish
81928,4S7WW,species,Rhinobatos holcorhynchus,Slender guitarfish
81929,4S7WZ,species,Rhinobatos hynnicephalus,Angel fish
81930,4S7X2,species,Rhinobatos irvinei,Spineback guitarfish
81931,4S7X3,species,Rhinobatos jimbaranensis,Jimbaran shovelnose ray
81932,4S7X7,species,Rhinobatos lionotus,Norman's shovelnose ray
81933,4S7X8,species,Rhinobatos microphthalmus,Smalleyed guitarfish
81934,4S7X9,species,Rhinobatos nudidorsalis,
81935,4S7XC,species,Rhinobatos penggali,Indonesian shovelnose ray
81936,4S7XK,species,Rhinobatos punctifer,Spotted guitarfish
81937,4S7XM,species,Rhinobatos rhinobatos,Common guitarfish
81938,4S7XN,species,Rhinobatos sainsburyi,Goldeneye shovelnose
81939,4S7XR,species,Rhinobatos schlegelii,Beaked guitar fish
81940,78TP7,species,Rhinobatos spinosus,Spiny guitarfish
81941,4S7XX,species,Rhinobatos thouiniana,Shaw's shovelnose guitar fish
81942,4S7Y2,species,Rhinobatos whitei,Philippine guitarfish
81943,7SV4,genus,Tarsistes,
81944,54XZ3,species,Tarsistes philippii,
81945,839D,genus,Trygonorrhina,
81946,59F35,species,Trygonorrhina dumerilii,
81947,59F36,species,Trygonorrhina fasciata,Banjo shark
81948,59F39,species,Trygonorrhina melaleuca,Black and white fiddler ray
81949,63X6J,genus,Zanobatus,
81950,5CW6J,species,Zanobatus maculatus,
81951,5CW6K,species,Zanobatus schoenleinii,
81952,648VT,genus,Zapteryx,
81953,5CX6R,species,Zapteryx brevirostris,
81954,5CX6S,species,Zapteryx exasperata,
81955,5CX6T,species,Zapteryx xyster,
81956,45B,order,Squaliformes,
81957,7V2,family,Centrophoridae,
81958,62K6N,genus,Centrophorus,
81959,5XHMR,species,Centrophorus atromarginatus,Blackfin gulper shark
81960,69HMP,species,Centrophorus granulosus,Gulper Shark
81961,5XHN8,species,Centrophorus harrissoni,Dogfish endeavor
81962,69HMW,species,Centrophorus isodon,Black gulper shark
81963,5XHN7,species,Centrophorus lesliei,African gulper shark
81964,69HMV,species,Centrophorus longipinnis,Longfin gulper shark
81965,69HN7,species,Centrophorus lusitanicus,Lowfin gulper shark
81966,69HN6,species,Centrophorus moluccensis,Arrowspine dogfish
81967,5XHNY,species,Centrophorus seychellorum,
81968,5XHNL,species,Centrophorus squamosus,Deepsea spiny dogfish
81969,69HNJ,species,Centrophorus tessellatus,Mosaic gulper shark
81970,5XHNN,species,Centrophorus uyato,Endeavor dogfish
81971,5XHNM,species,Centrophorus westraliensis,Dumb gulper shark
81972,69HNM,species,Centrophorus zeehaani,Little gulper shark
81973,6328B,genus,Deania,
81974,6CG9G,species,Deania calcea,Birdbeak dogfish
81975,34CF3,species,Deania hystricosa,Rough longnose dogfish
81976,34CF8,species,Deania profundorum,Arrowhead dogfish
81977,6CG9K,species,Deania quadrispinosa,Longsnout dogfish
81978,8YQ,family,Dalatiidae,
81979,3ZJW,genus,Dalatias,
81980,33YT6,species,Dalatias licha,Black shark
81981,4GGP,genus,Euprotomicroides,
81982,3CYDH,species,Euprotomicroides zantedeschia,Taillight shark
81983,4GGQ,genus,Euprotomicrus,
81984,3CYDJ,species,Euprotomicrus bispinatus,Pygmy shark
81985,4WRK,genus,Heteroscymnoides,
81986,3LDLV,species,Heteroscymnoides marleyi,Longnose pygmy shark
81987,55D3,genus,Isistius,
81988,3Q78H,species,Isistius brasiliensis,Cigar shark
81989,3Q78K,species,Isistius plutodus,Largetooth cookie-cutter shark
81990,63BK2,genus,Mollisquama,
81991,43WLG,species,Mollisquama parini,Pocket shark
81992,7LQ4,genus,Squaliolus,
81993,6ZF3P,species,Squaliolus aliae,Smalleye pigmy shark
81994,6ZF3N,species,Squaliolus laticaudus,Dwarf shark
81995,9KN,family,Echinorhinidae,
81996,49MH,genus,Echinorhinus,
81997,38KNZ,species,Echinorhinus brucus,Bramble shark
81998,38KP2,species,Echinorhinus cookei,Cooks bramble shark
81999,9VZ,family,Etmopteridae,
82000,NTY,genus,Aculeola,
82001,652V2,species,Aculeola nigra,Hooktooth dogfish
82002,3KB9,genus,Centroscyllium,
82003,SBF9,species,Centroscyllium excelsum,
82004,5XHK3,species,Centroscyllium fabricii,Black dogfish
82005,SBFC,species,Centroscyllium granulatum,
82006,69HJR,species,Centroscyllium kamoharai,Bareskin dogfish
82007,SBFF,species,Centroscyllium nigrum,
82008,SBFG,species,Centroscyllium ornatum,
82009,SBFH,species,Centroscyllium ritteri,
82010,633H8,genus,Etmopterus,
82011,3BM6V,species,Etmopterus alphus,Whitecheek lanternshark
82012,3BM6X,species,Etmopterus baxteri,Baxters lantern dogfish
82013,3BM6Y,species,Etmopterus benchleyi,Ninja lanternshark
82014,3BM6Z,species,Etmopterus bigelowi,Blurred lantern shark
82015,3BM74,species,Etmopterus brachyurus,Short-tail lantern shark
82016,3BM75,species,Etmopterus bullisi,Lined lantern shark
82017,3BM76,species,Etmopterus burgessi,
82018,3BM77,species,Etmopterus carteri,Cylindrical lantern shark
82019,3BM78,species,Etmopterus caudistigmus,
82020,3BM79,species,Etmopterus compagnoi,Broadbanded lanternshark
82021,6GT7G,species,Etmopterus decacuspidatus,Combtooth lantern shark
82022,3BM7B,species,Etmopterus dianthus,Pink lanternshark
82023,3BM7C,species,Etmopterus dislineatus,Lined lanternshark
82024,3BM7D,species,Etmopterus evansi,Blackmouth lanternshark
82025,3BM7F,species,Etmopterus fusus,Pygmy lanternshark
82026,3BM7H,species,Etmopterus gracilispinis,Broadband dogfish
82027,3BM7L,species,Etmopterus granulosus,Black shark
82028,3BM7N,species,Etmopterus hillianus,Blackbelly Dogfish
82029,3BM7P,species,Etmopterus joungi,Shortfin smooth lanternshark
82030,3BM7Q,species,Etmopterus lailae,Laila’s lanternshark
82031,3BM7R,species,Etmopterus litvinovi,Smalleye lantern shark
82032,3BM7T,species,Etmopterus lucifer,Blackbelly lantern shark
82033,6H57G,species,Etmopterus molleri,Blackbelly lanternshark
82034,3BM7W,species,Etmopterus perryi,Dwarf lantern shark
82035,3BM7X,species,Etmopterus polli,African lantern shark
82036,3BM7Y,species,Etmopterus princeps,Great lantern shark
82037,3BM7Z,species,Etmopterus pseudosqualiolus,
82038,3BM82,species,Etmopterus pusillus,Slender lantern shark
82039,3BM84,species,Etmopterus pycnolepis,Dense-scale lantern shark
82040,3BM85,species,Etmopterus robinsi,
82041,3BM86,species,Etmopterus samadiae,Papuan lanternshark
82042,3BM87,species,Etmopterus schultzi,Fringefin lantern shark
82043,3BM88,species,Etmopterus sculptus,Blackbelly lanternshark
82044,3BM89,species,Etmopterus sentosus,Thorny lantern shark
82045,6GSVD,species,Etmopterus spinax,Velvet belly
82046,3BM8B,species,Etmopterus splendidus,Splendid lantern shark
82047,3BM8C,species,Etmopterus tasmaniensis,
82048,3BM8D,species,Etmopterus unicolor,Brown lantern shark
82049,6GT7D,species,Etmopterus viator,
82050,3BM8F,species,Etmopterus villosus,Hawaiian lantern shark
82051,3BM8G,species,Etmopterus virens,Green lantern shark
82052,5TPK,genus,Miroscyllium,
82053,43MFB,species,Miroscyllium sheikoi,Rasptooth dogfish
82054,7ZZP,genus,Trigonognathus,
82055,58SJP,species,Trigonognathus kabeyai,Triangle-jaw lantern-shark
82056,DT3,family,Oxynotidae,
82057,63HRT,genus,Oxynotus,
82058,4BG9Z,species,Oxynotus bruniensis,Pepeke
82059,6THCB,species,Oxynotus caribbaeus,Caribbean roughshark
82060,75HCB,species,Oxynotus centrina,Angular rough shark
82061,75HCC,species,Oxynotus japonicus,Japanese roughshark
82062,75HCD,species,Oxynotus paradoxus,Angular rough shark
82063,626YV,family,Somniosidae,
82064,62K76,genus,Centroscymnus,
82065,SBFL,species,Centroscymnus coelolepis,
82066,SBFM,species,Centroscymnus crepidater,
82067,SBFR,species,Centroscymnus macracanthus,
82068,SBFW,species,Centroscymnus owstonii,
82069,SBFX,species,Centroscymnus plunketi,
82070,644Z4,genus,Scymnodalatias,
82071,4W5CS,species,Scymnodalatias albicauda,Whitetail dogfish
82072,4W5CT,species,Scymnodalatias garricki,Azores dogfish
82073,6XZZW,species,Scymnodalatias oligodon,Sparsetooth dogfish
82074,4W5CV,species,Scymnodalatias sherwoodi,Sherwood dogfish
82075,63SZ7,genus,Scymnodon,
82076,4W5D4,species,Scymnodon ringens,Knifetooth dogfish
82077,7JMD,genus,Somniosus,
82078,4Y8YC,species,Somniosus antarcticus,Greenland shark
82079,4Y8YF,species,Somniosus longus,Little sleeper shark
82080,4Y8YJ,species,Somniosus microcephalus,Greenland shark
82081,4Y8YL,species,Somniosus pacificus,Greenland shark
82082,4Y8YN,species,Somniosus rostratus,Little Sleeper Shark
82083,63WV2,genus,Zameus,
82084,7GDMV,species,Zameus ichiharai,Japanese velvet dogfish
82085,5CVNV,species,Zameus squamulosus,
82086,GLC,family,Squalidae,
82087,62LDH,genus,Cirrhigaleus,
82088,VGNY,species,Cirrhigaleus asper,Roughskin Dogfish
82089,VGNZ,species,Cirrhigaleus australis,Mandarin dogfish
82090,VGP2,species,Cirrhigaleus barbifer,Mandarin dogfish
82091,7LQB,genus,Squalus,
82092,6ZDWC,species,Squalus acanthias,Blue dog
82093,6ZDWQ,species,Squalus albicaudus,Brazilian whitetail dogfish
82094,6ZDX2,species,Squalus albifrons,Eastern highfin spurdog
82095,6ZDWP,species,Squalus altipinnis,Western highfin spurdog
82096,6ZDV6,species,Squalus bahiensis,Northeastern Brazilian dogfish
82097,6ZDVB,species,Squalus bassi,Long-snouted African spurdog
82098,6ZDVP,species,Squalus blainville,Bigeye dogfish
82099,6ZDVN,species,Squalus brevirostris,Shortnose dogfish
82100,6ZDW5,species,Squalus bucephalus,Bighead spurdog
82101,6ZDYK,species,Squalus chloroculus,Greeneye spurdog
82102,6ZDYT,species,Squalus crassispinus,Fatspine spurdog
82103,6ZDZ2,species,Squalus cubensis,Cuban dogfish
82104,6ZDZ6,species,Squalus edmundsi,Edmund's spurdog
82105,6ZDXG,species,Squalus formosus,Taiwan spurdog
82106,6ZDXN,species,Squalus grahami,Eastern longnose spurdog
82107,6ZDXR,species,Squalus griffini,Green-eyed dogfish
82108,6ZDXP,species,Squalus hemipinnis,Indonesian shortsnout spurdog
82109,6ZFNL,species,Squalus japonicus,Japanese spurdog
82110,6ZFNS,species,Squalus lalannei,
82111,6ZFNX,species,Squalus lobularis,Atlantic lobefin dogfish
82112,6ZFMQ,species,Squalus mahia,Malagasy skinny spurdog
82113,6ZFN3,species,Squalus margaretsmithae,Smith’s dogfish shark
82114,6ZFN4,species,Squalus megalops,Bluntnose spiny dogfish
82115,6ZFMT,species,Squalus melanurus,Blacktail spurdog
82116,6ZFNC,species,Squalus mitsukurii,Blainvilles dogfish
82117,6ZFND,species,Squalus montalbani,Indonesian greeneye spurdog
82118,6ZFNH,species,Squalus nasutus,Western longnose spurdog
82119,6ZG22,species,Squalus notocaudatus,Bartail spurdog
82120,6ZFQB,species,Squalus quasimodo,Humpback Western dogfish
82121,6ZG2B,species,Squalus rancureli,Cyrano spurdog
82122,6ZFQF,species,Squalus raoulensis,Kermadec spiny dogfish
82123,6ZFP3,species,Squalus suckleyi,Dogfish
82124,45D,order,Squatiniformes,
82125,GLF,family,Squatinidae,
82126,7LRS,genus,Squatina,
82127,6ZFGD,species,Squatina aculeata,Sawback angel shark
82128,6ZFGB,species,Squatina africana,African angel shark
82129,6ZFF2,species,Squatina albipunctata,Eastern Angel Shark
82130,6ZFF4,species,Squatina argentina,Angular angel shark
82131,6ZFF5,species,Squatina armata,Angel shark
82132,6ZFF8,species,Squatina australis,Angel shark
82133,6ZFF9,species,Squatina caillieti,Taiwan angleshark
82134,6ZFFB,species,Squatina californica,Angel shark
82135,6ZFFC,species,Squatina david,David’s Angel Shark
82136,6ZFHF,species,Squatina dumeril,Angel shark
82137,6ZFHJ,species,Squatina formosa,Taiwan angel shark
82138,6ZFHP,species,Squatina guggenheim,Angular angel shark
82139,6ZFHQ,species,Squatina heteroptera,Disparate angel shark
82140,6ZFHN,species,Squatina japonica,Change angel shark
82141,6ZFHR,species,Squatina legnota,Indonesian Angel Shark
82142,6ZFHX,species,Squatina mexicana,Mexican angel shark
82143,6ZFHY,species,Squatina nebulosa,Angel ray
82144,6ZFHV,species,Squatina occulta,Argentine angelshark
82145,6ZFHW,species,Squatina oculata,Monk fish
82146,6ZFHZ,species,Squatina pseudocellata,Western Angel Shark
82147,6ZFGG,species,Squatina punctata,
82148,6ZFGH,species,Squatina squatina,Angel
82149,6ZFGK,species,Squatina tergocellata,Angel shark
82150,6ZFGL,species,Squatina tergocellatoides,Ocellated angel shark
82151,48K,order,Torpediniformes,
82152,6257S,family,Hypnidae,
82153,52LL,genus,Hypnos,
82154,3NSXT,species,Hypnos monopterygius,Australian numbfish
82155,624Q4,family,Narcinidae,
82156,39J9,genus,Benthobatis,
82157,LHRF,species,Benthobatis kreffti,
82158,LHRG,species,Benthobatis marcida,Blind Torpedo
82159,LHRJ,species,Benthobatis moresbyi,Dark blind ray
82160,LHRK,species,Benthobatis yangi,Taiwanese blind electric ray
82161,466J,genus,Diplobatis,
82162,36JHG,species,Diplobatis colombiensis,
82163,36JHJ,species,Diplobatis guamachensis,
82164,36JHK,species,Diplobatis ommata,Bullseye electric ray
82165,36JHL,species,Diplobatis pictus,Painted electric ray
82166,46SG,genus,Discopyge,
82167,6CYBN,species,Discopyge castelloi,
82168,6CYBQ,species,Discopyge tschudii,Apron ray
82169,5XM2,genus,Narcine,
82170,6RSNQ,species,Narcine atzi,
82171,6S4NQ,species,Narcine baliensis,
82172,73SNQ,species,Narcine bancroftii,Bancroft's numbfish
82173,73SNP,species,Narcine brasiliensis,Brazilian electric ray
82174,744NP,species,Narcine brevilabiata,Shortlip electric ray
82175,6RSNN,species,Narcine brunnea,Brown electric ray
82176,6S4NN,species,Narcine entemedor,Cortez electric ray
82177,73SNM,species,Narcine insolita,
82178,744NM,species,Narcine lasti,Western numbfish
82179,6RSNL,species,Narcine leoparda,
82180,6S4NL,species,Narcine lingula,Chinese numbfish
82181,6RSNK,species,Narcine maculata,Dark-spotted elctric ray
82182,45PB4,species,Narcine nelsoni,Eastern numbfish
82183,45PB5,species,Narcine oculifera,
82184,45PB7,species,Narcine ornata,Banded numbfish
82185,45PB8,species,Narcine prodorsalis,Tonkin electric ray
82186,45PB9,species,Narcine rierai,Mozambique electric ray
82187,45PBB,species,Narcine tasmaniensis,Electric ray
82188,45PBC,species,Narcine timlei,Black-spotted electric ray
82189,744NK,species,Narcine vermiculatus,Vermiculate electric ray
82190,45PBH,species,Narcine westraliensis,Banded numbfish
82191,D6B,family,Narkidae,
82192,62MZN,genus,Crassinarke,
82193,Z6N6,species,Crassinarke dormitor,Sleeper torpedo
82194,62QF4,genus,Electrolux,
82195,396TX,species,Electrolux addisoni,Ornate sleeper-ray
82196,4WKH,genus,Heteronarce,
82197,6M4LK,species,Heteronarce bentuviai,Elat electric ray
82198,6LSLL,species,Heteronarce garmani,Natal electric ray
82199,6M4LL,species,Heteronarce mollis,Soft electric ray
82200,6LSLM,species,Heteronarce prabhui,Quilon electric ray
82201,5XN8,genus,Narke,
82202,45PVM,species,Narke capensis,Cape numbfish
82203,45PVN,species,Narke dipterygia,Numbray
82204,45PVP,species,Narke japonica,Electric numb ray
82205,7TN2,genus,Temera,
82206,559HL,species,Temera hardwickii,Electric ray
82207,849P,genus,Typhlonarke,
82208,59WWB,species,Typhlonarke aysoni,Blind electric ray
82209,59WWC,species,Typhlonarke tarakea,Numbfish
82210,625PW,family,Platyrhinidae,
82211,6S35,genus,Platyrhina,
82212,4JXVV,species,Platyrhina hyugaensis,Hyuga fanray
82213,4JXVY,species,Platyrhina psomadakisi,Indian fanray
82214,4JXW2,species,Platyrhina sinensis,Amoy fanray
82215,4JXW3,species,Platyrhina tangi,Yellow-spotted fanray
82216,62733,family,Torpedinidae,
82217,6476Y,genus,Tetronarce,
82218,7C4FW,species,Tetronarce californica,Electric ray
82219,7C4G8,species,Tetronarce cowleyi,Cowley’s torpedo ray
82220,7BSJ8,species,Tetronarce fairchildi,Electric ray
82221,7C4J8,species,Tetronarce formosa,Electric ray
82222,7BSJ9,species,Tetronarce macneilli,Australian torpedo
82223,7C4J9,species,Tetronarce microdiscus,Smalldisk torpedo
82224,7BSJ6,species,Tetronarce nobiliana,Atlantic New British torpedo
82225,7C4J6,species,Tetronarce peruana,Electric ray
82226,7BSJ7,species,Tetronarce puelcha,Argentine torpedo
82227,7C4J7,species,Tetronarce semipelagica,Semipelagic torpedo
82228,7BSJ4,species,Tetronarce tokionis,Trapezoid torpedo
82229,7C4J4,species,Tetronarce tremens,Chilean torpedo
82230,7XV8,genus,Torpedo,
82231,57GCC,species,Torpedo adenensis,
82232,57GCF,species,Torpedo andersoni,Florida torpedo
82233,57GCH,species,Torpedo bauchotae,Rosette torpedo
82234,57GCT,species,Torpedo fuscomaculata,Black-spotted torpedo
82235,57GCY,species,Torpedo mackayana,Electric ray
82236,57GD4,species,Torpedo marmorata,Common crampfish
82237,57GDM,species,Torpedo panthera,Leopard torpedo
82238,57GDW,species,Torpedo sinuspersici,Gulf torpedo
82239,57GDZ,species,Torpedo suessii,
